Discover, Count, Categorise, Score, Translate and Relate Emoji in Text • tidyEmoji
…
You can also search the emoji catalogue by keyword:

emoji_search("happy")
#> # A tibble: 27 × 5
#>    emoji name                            shortcode             group     keyword
#>    <chr> <chr>                           <chr>                 <chr>     <chr>  
#>  1 😀    grinning face                   grinning              Smileys … happy  
#>  2 😃    grinning face with big eyes     smiley                Smileys … happy  
#>  3 😄    grinning face with smiling eyes smile                 Smileys … happy  
#>  4 😁    beaming face with smiling eyes  grin                  Smileys … happy  
#>  5 😆    grinning squinting face         laughing              Smileys … happy  
#>  6 🤣    rolling on the floor laughing   rofl                  Smileys … happy  
#>  7 😂    face with tears of joy          joy                   Smileys … happy  
#>  8 🙂    slightly smiling face           slightly_smiling_face Smileys … happy  
#>  9 😇    smiling face with halo          innocent              Smileys … happy  
#> 10 ☺     smiling face                    smiling_face          Smileys … happy  
#> # ℹ 17 more rows
…
