Emoji emotion profiles (the 8 Plutchik emotions) — emoji_emotion • tidyEmoji
…
    Examples

df <- data.frame(text = c("love it \U0001f60d", "scary \U0001f628", "meh"))
emoji_emotion(df, text)
#> # A tibble: 3 × 11
#>   text    .emoji_anger .emoji_anticipation .emoji_disgust .emoji_fear .emoji_joy
#>   <chr>          <dbl>               <dbl>          <dbl>       <dbl>      <dbl>
#> 1 love i…         0                   0.31           0           0          0.83
#> 2 scary …         0.17                0.39           0.33        0.97       0   
#> 3 meh            NA                  NA             NA          NA         NA   
#> # ℹ 5 more variables: .emoji_sadness <dbl>, .emoji_surprise <dbl>,
#> #   .emoji_trust <dbl>, .emoji_n <int>, .emoji_n_scored <int>
emoji_emotion(df, text, long = TRUE)
#> # A tibble: 24 × 3
#>    text       .emoji_emotion .emoji_score
#>    <chr>      <chr>                 <dbl>
#>  1 love it 😍 anger                  0   
#>  2 love it 😍 anticipation           0.31
#>  3 love it 😍 disgust                0   
#>  4 love it 😍 fear                   0   
#>  5 love it 😍 joy                    0.83
#>  6 love it 😍 sadness                0   
#>  7 love it 😍 surprise               0.5 
#>  8 love it 😍 trust                  0.5 
#>  9 scary 😨   anger                  0.17
#> 10 scary 😨   anticipation           0.39
#> # ℹ 14 more rows
…
