Introduction to tidyEmoji • tidyEmoji
…
The raw data has 10000 tweets in total, 2841 of which have at least one Emoji.

If users want to filter the Emoji Tweets, the emoji_tweets() function is specifically designed for this purpose. Researchers might be interested in finding differences (such as sentiment or timestamp differences) between Emoji and non-Emoji Tweets.

emoji_extract_nest/unnest()

If users would like to see how many Emoji each Tweet has, emoji_extract_nest() can help achieve the task. The function preserves the raw data, in this case ata_tweets. The only change is it adds an extra list column .emoji_unicode to let the users see how many Emoji each Tweet has.

ata_tweets %>%
  emoji_extract_nest(full_text) %>%
  select(.emoji_unicode) 
#> # A tibble: 10,000 x 1
#>    .emoji_unicode
#>    <list>        
#>  1 <chr [0]>     
#>  2 <chr [0]>     
#>  3 <chr [1]>     
#>  4 <chr [1]>     
#>  5 <chr [0]>     
#>  6 <chr [2]>     
#>  7 <chr [0]>     
#>  8 <chr [0]>     
#>  9 <chr [0]>     
#> 10 <chr [0]>     
#> # ... with 9,990 more rows

When looking at the output above, we know immediately that the first two Tweets do not have any Emoji, but the third and fourth one have 1. If users want to see what exactly each Emoji Unicode is, they can either unnest(.emoji_unicode) or simply use emoji_extract_unnest() as follows:

emoji_count_per_tweet <- ata_tweets %>%
  emoji_extract_unnest(full_text) 

emoji_count_per_tweet
#> # A tibble: 4,166 x 3
#>    row_number .emoji_unicode .emoji_count
#>         <int> <chr>                 <int>
#>  1          3 "\U0001f629"              1
#>  2          4 "\U0001f970"              1
#>  3          6 "\U0001f3fe"              1
#>  4          6 "\U0001f44c"              1
#>  5         11 "\U0001f970"              1
#>  6         12 "\U0001f643"              1
#>  7         15 "\U0001f60e"              1
#>  8         17 "\U0001f97a"              1
#>  9         33 "\U0001f3fd"              2
#> 10         33 "\U0001f629"              1
#> # ... with 4,156 more rows
…
emoji_categorize():

ata_emoji_category <- ata_tweets %>%
  emoji_categorize(full_text) %>%
  select(.emoji_category)

ata_emoji_category
#> # A tibble: 2,841 x 1
#>    .emoji_category                          
#>    <chr>                                    
#>  1 Smileys & Emotion                        
#>  2 Smileys & Emotion                        
#>  3 Smileys & Emotion                        
#>  4 Smileys & Emotion                        
#>  5 Smileys & Emotion                        
#>  6 Smileys & Emotion                        
#>  7 Smileys & Emotion|People & Body|Component
#>  8 Smileys & Emotion                        
#>  9 Smileys & Emotion                        
#> 10 Smileys & Emotion                        
#> # ... with 2,831 more rows
…
