Introduction to tidyEmoji • tidyEmoji
…
library(tidyEmoji)
library(dplyr)
library(ggplot2)

Example data

Throughout this vignette we use a sample of text collected in
Atlanta, Georgia. The data happens to come from a social-media corpus,
but nothing below is specific to any platform — any data frame with a
text column will do.

ata_tweets <- readr::read_csv("ata_tweets.csv", show_col_types = FALSE)
ata_tweets
#> # A tibble: 2,000 × 1
#>    full_text                                                                    
#>    <chr>                                                                        
#>  1 "Was Justin Bieber ever at any BLM March/protest this past summer? Or ever?" 
#>  2 "Whole Family gone and I’m stuck here in Brunswick 😭"                       
#>  3 "38 years old and I still get distracted while cleaning my room. \n\nJust in…
#>  4 "This time last year I was blasting fever nonstop by Wizkid 😭"              
#>  5 "Kanye is a just a black man with a lot of confidence and y’all tear him dow…
#>  6 "Feel like being my inner self today"                                        
#>  7 "Peep toe boots irk my sole."                                                
#>  8 "Nah the biggest naruto fans be trying call one piece long like... nigga?"   
#>  9 "if my shoes don’t arrive by next Friday imma be pissed"                     
#> 10 "Phone dry asf 🙄"                                                           
#> # ℹ 1,990 more rows
…
Here, 560 of the 2,000 entries (28%) contain at least one emoji.

emoji_filter()

emoji_filter() keeps only the rows whose text contains
at least one emoji, preserving every original column. This is useful
when you want to compare emoji-bearing and emoji-free text, or restrict
an analysis to the emoji subset. (emoji_tweets() is a
synonym retained for backward compatibility.)

ata_tweets %>%
  emoji_filter(full_text)
#> # A tibble: 560 × 1
#>    full_text                                                                    
#>    <chr>                                                                        
#>  1 Whole Family gone and I’m stuck here in Brunswick 😭                         
#>  2 This time last year I was blasting fever nonstop by Wizkid 😭                
#>  3 Phone dry asf 🙄                                                             
#>  4 When I gave my life to Christ, I was able to see people as imperfect, but st…
#>  5 Everyone needs self care days❤️                                               
#>  6 R u sears rn 🤦🏽‍♀️                                                              
#>  7 Gucci wit some dope runnas head huncho top gunna u a sto runna😭             
#>  8 i’m thinking insomnia cause they got this caramel apple pie cookie. 😋       
#>  9 i deadass listen to the music everyday lmao🥲                                
#> 10 Im ona block where ya barley can be at  if you try get shot down 😈          
#> # ℹ 550 more rows
…
tidyEmoji offers three complementary ways to pull the emoji out of
text, depending on the shape of output you want.

emoji_extract_nest()

emoji_extract_nest() leaves the data unchanged except
for an added list-column, .emoji_unicode, holding the emoji
found in each row. The original data structure is preserved, which makes
this convenient as an intermediate step.

ata_tweets %>%
  emoji_extract_nest(full_text) %>%
  select(full_text, .emoji_unicode)
#> # A tibble: 2,000 × 2
#>    full_text                                                      .emoji_unicode
#>    <chr>                                                          <list>        
#>  1 "Was Justin Bieber ever at any BLM March/protest this past su… <chr [0]>     
#>  2 "Whole Family gone and I’m stuck here in Brunswick 😭"         <chr [1]>     
#>  3 "38 years old and I still get distracted while cleaning my ro… <chr [0]>     
#>  4 "This time last year I was blasting fever nonstop by Wizkid 😭… <chr [1]>     
#>  5 "Kanye is a just a black man with a lot of confidence and y’a… <chr [0]>     
#>  6 "Feel like being my inner self today"                          <chr [0]>     
#>  7 "Peep toe boots irk my sole."                                  <chr [0]>     
#>  8 "Nah the biggest naruto fans be trying call one piece long li… <chr [0]>     
#>  9 "if my shoes don’t arrive by next Friday imma be pissed"       <chr [0]>     
#> 10 "Phone dry asf 🙄"                                             <chr [1]>     
#> # ℹ 1,990 more rows

emoji_extract_unnest()

emoji_extract_unnest() returns a long, tidy table with
one row per (entry, emoji) pair: .row_number records the
position of the entry in the data, .emoji_unicode is the
emoji, and .emoji_count is how many times that emoji occurs
in that entry. Entries without emoji are dropped.

emoji_per_tweet <- ata_tweets %>%
  emoji_extract_unnest(full_text)

emoji_per_tweet
#> # A tibble: 697 × 3
#>    .row_number .emoji_unicode .emoji_count
#>          <int> <chr>                 <int>
#>  1           2 😭                        1
#>  2           4 😭                        1
#>  3          10 🙄                        1
#>  4          15 😂                        1
#>  5          17 ❤️                         1
#>  6          30 🤦🏽‍♀️                        1
#>  7          31 😭                        1
#>  8          33 😋                        1
#>  9          42 🥲                        1
#> 10          45 😈                        1
#> # ℹ 687 more rows
…
emoji_tokens()

emoji_tokens() produces a “one row per emoji occurrence”
table — the emoji analogue of a tidy-text token table. It keeps the
original columns and adds the glyph (.emoji) together with
its name (.emoji_name), category
(.emoji_category) and sentiment score
(.emoji_sentiment). This single call gives you everything
needed for counting, joining and plotting.

ata_tweets %>%
  emoji_tokens(full_text)
#> # A tibble: 901 × 5
#>    full_text                 .emoji .emoji_name .emoji_category .emoji_sentiment
#>    <chr>                     <chr>  <chr>       <chr>                      <dbl>
#>  1 Whole Family gone and I’… 😭     loudly cry… Smileys & Emot…          -0.0934
#>  2 This time last year I wa… 😭     loudly cry… Smileys & Emot…          -0.0934
#>  3 Phone dry asf 🙄          🙄     face with … Smileys & Emot…          NA     
#>  4 When I gave my life to C… 😂     face with … Smileys & Emot…           0.221 
#>  5 Everyone needs self care… ❤️      red heart   Smileys & Emot…           0.746 
#>  6 R u sears rn 🤦🏽‍♀️           🤦🏽‍♀️     woman face… People & Body            NA     
#>  7 Gucci wit some dope runn… 😭     loudly cry… Smileys & Emot…          -0.0934
#>  8 i’m thinking insomnia ca… 😋     face savor… Smileys & Emot…           0.634 
#>  9 i deadass listen to the … 🥲     smiling fa… Smileys & Emot…          NA     
#> 10 Im ona block where ya ba… 😈     smiling fa… Smileys & Emot…           0.268 
#> # ℹ 891 more rows
…
Counting emoji across the corpus

emoji_frequency()

emoji_frequency() counts how often each emoji appears
across the whole text column (an entry containing the same emoji twice
contributes 2) and returns the result sorted by descending count,
annotated with each emoji’s name, shortcode and category.

ata_tweets %>%
  emoji_frequency(full_text)
#> # A tibble: 188 × 5
#>    emoji name                          shortcode                     group     n
#>    <chr> <chr>                         <chr>                         <chr> <int>
#>  1 😂    face with tears of joy        joy                           Smil…   160
#>  2 😭    loudly crying face            sob                           Smil…    98
#>  3 😩    weary face                    weary                         Smil…    34
#>  4 🤣    rolling on the floor laughing rofl                          Smil…    34
#>  5 🥺    pleading face                 pleading_face                 Smil…    29
#>  6 🙄    face with rolling eyes        roll_eyes                     Smil…    22
#>  7 🥴    woozy face                    woozy_face                    Smil…    21
#>  8 💯    hundred points                100                           Smil…    20
#>  9 😍    smiling face with heart-eyes  heart_eyes                    Smil…    20
#> 10 🥰    smiling face with hearts      smiling_face_with_three_hear… Smil…    20
#> # ℹ 178 more rows
…
Categorising emoji

The Unicode standard organises emoji into 10 categories (see
?category_unicode_crosswalk).
emoji_categorize() keeps the emoji-bearing rows and adds a
.emoji_category column listing the distinct categories
present in each row, separated by | when a row spans more
than one.

ata_emoji_category <- ata_tweets %>%
  emoji_categorize(full_text) %>%
  select(.emoji_category)

ata_emoji_category
#> # A tibble: 560 × 1
#>    .emoji_category  
#>    <chr>            
#>  1 Smileys & Emotion
#>  2 Smileys & Emotion
#>  3 Smileys & Emotion
#>  4 Smileys & Emotion
#>  5 Smileys & Emotion
#>  6 People & Body    
#>  7 Smileys & Emotion
#>  8 Smileys & Emotion
#>  9 Smileys & Emotion
#> 10 Smileys & Emotion
#> # ℹ 550 more rows
…
ata_sentiment <- ata_tweets %>%
  emoji_sentiment(full_text)

ata_sentiment %>%
  select(.emoji_n, .emoji_sentiment)
#> # A tibble: 2,000 × 2
#>    .emoji_n .emoji_sentiment
#>       <int>            <dbl>
#>  1        0          NA     
#>  2        1          -0.0934
#>  3        0          NA     
#>  4        1          -0.0934
#>  5        0          NA     
#>  6        0          NA     
#>  7        0          NA     
#>  8        0          NA     
#>  9        0          NA     
#> 10        1          NA     
#> # ℹ 1,990 more rows
…
Scoring emoji emotions

Valence (negative↔︎positive) is only one affective dimension.
emoji_emotion() goes further, scoring each entry’s emoji
across the eight Plutchik emotions (anger, anticipation, disgust, fear,
joy, sadness, surprise, trust) using the bundled EmoTag1200 lexicon
(Shoeb & de Melo, 2020). Scores are in [0, 1].

ata_emotion <- ata_tweets %>%
  emoji_emotion(full_text)

ata_emotion %>%
  select(.emoji_joy, .emoji_trust, .emoji_anger, .emoji_n)
#> # A tibble: 2,000 × 4
#>    .emoji_joy .emoji_trust .emoji_anger .emoji_n
#>         <dbl>        <dbl>        <dbl>    <int>
#>  1         NA        NA           NA           0
#>  2          0         0.08         0.22        1
#>  3         NA        NA           NA           0
#>  4          0         0.08         0.22        1
#>  5         NA        NA           NA           0
#>  6         NA        NA           NA           0
#>  7         NA        NA           NA           0
#>  8         NA        NA           NA           0
#>  9         NA        NA           NA           0
#> 10         NA        NA           NA           1
#> # ℹ 1,990 more rows
…
Relating emoji: co-occurrence and sequences

Which emoji appear together? emoji_pairs()
returns a tidy edge list — one row per pair of distinct emoji that
co-occur in the same entry, with the number of entries in which they do.
The item1/item2/n shape matches
widyr::pairwise_count() and feeds directly into graph tools
such as igraph, tidygraph and ggraph:

emoji_edges <- ata_tweets %>%
  emoji_pairs(full_text)

emoji_edges
#> # A tibble: 214 × 3
#>    item1 item2     n
#>    <chr> <chr> <int>
#>  1 😂    😭       10
#>  2 😂    😩        4
#>  3 😂    🙄        3
#>  4 😭    🙄        3
#>  5 💕    🥰        2
#>  6 💞    🥺        2
#>  7 💯    🤷🏽‍♂️        2
#>  8 🤔    😂        2
#>  9 🤣    😂        2
#> 10 🤷🏼‍♀️    😂        2
#> # ℹ 204 more rows
…
Set directed = TRUE to order each pair by first
appearance, or supply doc_id to pool several rows (a
conversation, a user, a day) into one document.
emoji_cooccurrence(diagonal = TRUE) additionally returns
each emoji’s document frequency on the diagonal.

Order also matters within an entry.
emoji_ngrams() slides a window over each entry’s emoji in
reading order (any text in between is ignored), which is the raw
material for sequence and Markov-style analyses:

ata_tweets %>%
  emoji_ngrams(full_text) %>%
  count(.emoji_ngram, sort = TRUE)
#> # A tibble: 159 × 2
#>    .emoji_ngram     n
#>    <chr>        <int>
#>  1 😂 😂           66
#>  2 😭 😭           27
#>  3 😍 😍           13
#>  4 🥺 🥺           13
#>  5 🤣 🤣           10
#>  6 😭 😂            8
#>  7 🖕🏻 🖕🏻            7
#>  8 😡 😡            5
#>  9 🙏🏾 🙏🏾            5
#> 10 💀 💀            4
#> # ℹ 149 more rows
…
Emoji as model features

For classification and regression work, emoji_dfm()
turns the corpus into a document-by-emoji feature table: one row per
entry (or per doc_id), one column per emoji, weighted by
counts, binary presence or tf-idf. Every entry is kept — emoji-free rows
are all zeros — so the table binds row-for-row to your outcome
columns:

ata_tweets %>%
  emoji_dfm(full_text, weighting = "tfidf") %>%
  select(1:6)
#> # A tibble: 2,000 × 6
#>    .row_number  `😂`  `😭`  `🤣`  `😩`  `🥺`
#>          <int> <dbl> <dbl> <dbl> <dbl> <dbl>
#>  1           1     0  0        0     0     0
#>  2           2     0  3.34     0     0     0
#>  3           3     0  0        0     0     0
#>  4           4     0  3.34     0     0     0
#>  5           5     0  0        0     0     0
#>  6           6     0  0        0     0     0
#>  7           7     0  0        0     0     0
#>  8           8     0  0        0     0     0
#>  9           9     0  0        0     0     0
#> 10          10     0  0        0     0     0
#> # ℹ 1,990 more rows
…
as_emoji_name(c("\U0001f600", "\u2764\ufe0f"))
#> [1] "grinning face" "red heart"
as_emoji_shortcode(c("\U0001f600", "\u2764\ufe0f"))
#> [1] "grinning" "heart"
as_emoji(c("grinning", "heart"))
#> [1] "😀" "❤️"

Searching the emoji catalogue

emoji_search() looks emoji up by keyword, name or
shortcode (case-insensitive, literal matching), returning a tidy tibble
you can filter further or feed into the other verbs:

emoji_search("happy")
#> # A tibble: 27 × 5
#>    emoji name                            shortcode             group     keyword
#>    <chr> <chr>                           <chr>                 <chr>     <chr>  
#>  1 😀    grinning face                   grinning              Smileys … happy  
#>  2 😃    grinning face with big eyes     smiley                Smileys … happy  
#>  3 😄    grinning face with smiling eyes smile                 Smileys … happy  
#>  4 😁    beaming face with smiling eyes  grin                  Smileys … happy  
#>  5 😆    grinning squinting face         laughing              Smileys … happy  
#>  6 🤣    rolling on the floor laughing   rofl                  Smileys … happy  
#>  7 😂    face with tears of joy          joy                   Smileys … happy  
#>  8 🙂    slightly smiling face           slightly_smiling_face Smileys … happy  
#>  9 😇    smiling face with halo          innocent              Smileys … happy  
#> 10 ☺     smiling face                    smiling_face          Smileys … happy  
#> # ℹ 17 more rows
emoji_search("celebration")
#> # A tibble: 27 × 5
#>    emoji name                     shortcode      group             keyword    
#>    <chr> <chr>                    <chr>          <chr>             <chr>      
#>  1 🥳    partying face            partying_face  Smileys & Emotion celebration
#>  2 🙌    raising hands            raised_hands   People & Body     celebration
#>  3 🎅    Santa Claus              santa          People & Body     celebration
#>  4 🤶    Mrs. Claus               mrs_claus      People & Body     celebration
#>  5 🧑‍🎄    Mx Claus                 mx_claus       People & Body     celebration
#>  6 🎂    birthday cake            birthday       Food & Drink      celebration
#>  7 🍾    bottle with popping cork champagne      Food & Drink      celebration
#>  8 🎃    jack-o-lantern           jack_o_lantern Activities        celebration
#>  9 🎄    Christmas tree           christmas_tree Activities        celebration
#> 10 🎆    fireworks                fireworks      Activities        celebration
#> # ℹ 17 more rows
…
