…
## Example data

Throughout this vignette we use a sample of 10,000 tweets collected in
Atlanta, Georgia. Tweets are a convenient, emoji-rich example, but
nothing below is specific to Twitter — any data frame with a text column
will do.

``` r

ata_tweets <- readr::read_csv("ata_tweets.rda", show_col_types = FALSE)
ata_tweets
#> # A tibble: 10,000 × 1
#>    full_text                                                                    
#>    <chr>                                                                        
#>  1 "im not arguing  im not fighting nobody w a gun. people are dying every day …
#>  2 "Time left until rump leaves office\nZoom\n56days\n1349hours\n80940minutes\n…
#>  3 "It’s been 15 years since my father’s imprisonment  I swore it would get eas…
#>  4 "Friendsgiving with my roomies🥰"                                            
#>  5 "Going to be one of those “countdown app” people just so I have motivation t…
#>  6 "When I can turn my philosophical thoughts into poetry. The world gone be on…
#>  7 "These females really be trying it but fail to realize my girl tells me ever…
#>  8 "why my sister called me toxic lmao"                                         
#>  9 "What a great year to be not taking care of no kids."                        
#> 10 "definitely don’t see any children in my near future, not with me trying to …
#> # ℹ 9,990 more rows
```
…
### `emoji_filter()`

[`emoji_filter()`](https://pursuitofdatascience.github.io/tidyEmoji/reference/emoji_filter.md)
keeps only the rows whose text contains at least one emoji, preserving
every original column. This is useful when you want to compare
emoji-bearing and emoji-free text, or restrict an analysis to the emoji
subset.
([`emoji_tweets()`](https://pursuitofdatascience.github.io/tidyEmoji/reference/emoji_filter.md)
is a synonym retained for backward compatibility.)

``` r

ata_tweets %>%
  emoji_filter(full_text)
#> # A tibble: 2,818 × 1
#>    full_text                                                                    
#>    <chr>                                                                        
#>  1 It’s been 15 years since my father’s imprisonment  I swore it would get easi…
#>  2 Friendsgiving with my roomies🥰                                              
#>  3 When I can turn my philosophical thoughts into poetry. The world gone be on …
#>  4 I always get the last laugh 🥰 so I let people do what they want             
#>  5 One thing about me, imma keep that same energy. 🙃                           
#>  6 I’m really dope. 😎                                                          
#>  7 I miss my bb🥺                                                               
#>  8 Got half of bae and raidens Christmas shopping done 😩🙌🏽🙌🏽                   
#>  9 Y’all be letting anybody in the studio and ion like dat🥴                    
#> 10 Sometimes I need to work on myself before I can please anyone or get ready f…
#> # ℹ 2,808 more rows
```
…
### `emoji_extract_nest()`

[`emoji_extract_nest()`](https://pursuitofdatascience.github.io/tidyEmoji/reference/emoji_extract_nest.md)
leaves the data unchanged except for an added list-column,
`.emoji_unicode`, holding the emoji found in each row. The original data
structure is preserved, which makes this convenient as an intermediate
step.

``` r

ata_tweets %>%
  emoji_extract_nest(full_text) %>%
  select(full_text, .emoji_unicode)
#> # A tibble: 10,000 × 2
#>    full_text                                                      .emoji_unicode
#>    <chr>                                                          <list>        
#>  1 "im not arguing  im not fighting nobody w a gun. people are d… <chr [0]>     
#>  2 "Time left until rump leaves office\nZoom\n56days\n1349hours\… <chr [0]>     
#>  3 "It’s been 15 years since my father’s imprisonment  I swore i… <chr [1]>     
#>  4 "Friendsgiving with my roomies🥰"                              <chr [1]>     
#>  5 "Going to be one of those “countdown app” people just so I ha… <chr [0]>     
#>  6 "When I can turn my philosophical thoughts into poetry. The w… <chr [1]>     
#>  7 "These females really be trying it but fail to realize my gir… <chr [0]>     
#>  8 "why my sister called me toxic lmao"                           <chr [0]>     
#>  9 "What a great year to be not taking care of no kids."          <chr [0]>     
#> 10 "definitely don’t see any children in my near future, not wit… <chr [0]>     
#> # ℹ 9,990 more rows
```
### `emoji_extract_unnest()`

[`emoji_extract_unnest()`](https://pursuitofdatascience.github.io/tidyEmoji/reference/emoji_extract_unnest.md)
returns a long, tidy table with one row per (entry, emoji) pair:
`row_number` records the position of the entry in the data,
`.emoji_unicode` is the emoji, and `.emoji_count` is how many times that
emoji occurs in that entry. Entries without emoji are dropped.

``` r

emoji_per_tweet <- ata_tweets %>%
  emoji_extract_unnest(full_text)

emoji_per_tweet
#> # A tibble: 3,519 × 3
#>    row_number .emoji_unicode .emoji_count
#>         <int> <chr>                 <int>
#>  1          3 😩                        1
#>  2          4 🥰                        1
#>  3          6 👌🏾                        1
#>  4         11 🥰                        1
#>  5         12 🙃                        1
#>  6         15 😎                        1
#>  7         17 🥺                        1
#>  8         33 😩                        1
#>  9         33 🙌🏽                        2
#> 10         34 🥴                        1
#> # ℹ 3,509 more rows
```
…
### `emoji_tokens()`

[`emoji_tokens()`](https://pursuitofdatascience.github.io/tidyEmoji/reference/emoji_tokens.md)
produces a “one row per emoji occurrence” table — the emoji analogue of
a tidy-text token table. It keeps the original columns and adds the
glyph (`.emoji`) together with its name (`.emoji_name`), category
(`.emoji_category`) and sentiment score (`.emoji_sentiment`). This
single call gives you everything needed for counting, joining and
plotting.

``` r

ata_tweets %>%
  emoji_tokens(full_text)
#> # A tibble: 4,611 × 5
#>    full_text                 .emoji .emoji_name .emoji_category .emoji_sentiment
#>    <chr>                     <chr>  <chr>       <chr>                      <dbl>
#>  1 It’s been 15 years since… 😩     weary face  Smileys & Emot…           -0.368
#>  2 Friendsgiving with my ro… 🥰     smiling fa… Smileys & Emot…           NA    
#>  3 When I can turn my philo… 👌🏾     OK hand: m… People & Body             NA    
#>  4 I always get the last la… 🥰     smiling fa… Smileys & Emot…           NA    
#>  5 One thing about me, imma… 🙃     upside-dow… Smileys & Emot…           NA    
#>  6 I’m really dope. 😎       😎     smiling fa… Smileys & Emot…            0.493
#>  7 I miss my bb🥺            🥺     pleading f… Smileys & Emot…           NA    
#>  8 Got half of bae and raid… 😩     weary face  Smileys & Emot…           -0.368
#>  9 Got half of bae and raid… 🙌🏽     raising ha… People & Body             NA    
#> 10 Got half of bae and raid… 🙌🏽     raising ha… People & Body             NA    
#> # ℹ 4,601 more rows
```
…
## Counting emoji across the corpus

### `emoji_frequency()`

[`emoji_frequency()`](https://pursuitofdatascience.github.io/tidyEmoji/reference/emoji_frequency.md)
counts how often each emoji appears across the whole text column (an
entry containing the same emoji twice contributes 2) and returns the
result sorted by descending count, annotated with each emoji’s name,
shortcode and category.

``` r

ata_tweets %>%
  emoji_frequency(full_text)
#> # A tibble: 423 × 5
#>    emoji name                          shortcode                     group     n
#>    <chr> <chr>                         <chr>                         <chr> <int>
#>  1 😂    face with tears of joy        joy                           Smil…   766
#>  2 😭    loudly crying face            sob                           Smil…   536
#>  3 🤣    rolling on the floor laughing rofl                          Smil…   182
#>  4 😩    weary face                    weary                         Smil…   170
#>  5 🥺    pleading face                 pleading_face                 Smil…   148
#>  6 🥴    woozy face                    woozy_face                    Smil…   136
#>  7 🥰    smiling face with hearts      smiling_face_with_three_hear… Smil…   106
#>  8 🙄    face with rolling eyes        roll_eyes                     Smil…    83
#>  9 💯    hundred points                100                           Smil…    78
#> 10 ❤️     red heart                     heart                         Smil…    66
#> # ℹ 413 more rows
```
…
The Unicode standard organises emoji into 10 categories (see
[`?category_unicode_crosswalk`](https://pursuitofdatascience.github.io/tidyEmoji/reference/category_unicode_crosswalk.md)).
[`emoji_categorize()`](https://pursuitofdatascience.github.io/tidyEmoji/reference/emoji_categorize.md)
keeps the emoji-bearing rows and adds a `.emoji_category` column listing
the distinct categories present in each row, separated by `|` when a row
spans more than one.

``` r

ata_emoji_category <- ata_tweets %>%
  emoji_categorize(full_text) %>%
  select(.emoji_category)

ata_emoji_category
#> # A tibble: 2,818 × 1
#>    .emoji_category                
#>    <chr>                          
#>  1 Smileys & Emotion              
#>  2 Smileys & Emotion              
#>  3 People & Body                  
#>  4 Smileys & Emotion              
#>  5 Smileys & Emotion              
#>  6 Smileys & Emotion              
#>  7 Smileys & Emotion              
#>  8 Smileys & Emotion|People & Body
#>  9 Smileys & Emotion              
#> 10 Travel & Places|Activities     
#> # ℹ 2,808 more rows
```
…
``` r

ata_sentiment <- ata_tweets %>%
  emoji_sentiment(full_text)

ata_sentiment %>%
  select(.emoji_n, .emoji_sentiment)
#> # A tibble: 10,000 × 2
#>    .emoji_n .emoji_sentiment
#>       <int>            <dbl>
#>  1        0           NA    
#>  2        0           NA    
#>  3        1           -0.368
#>  4        1           NA    
#>  5        0           NA    
#>  6        1           NA    
#>  7        0           NA    
#>  8        0           NA    
#>  9        0           NA    
#> 10        0           NA    
#> # ℹ 9,990 more rows
```
…
